,"Broadleaved, mixed and yew woodland",1
,"Coniferous woodland",2
,"Boundary and linear features",3
,"Arable and horticultural",4
,"Improved grassland",5
,"Neutral grassland",6
,"Calcareous grassland",7
,"Acid grassland",8
,"Bracken",9
,"Dwarf shrub heath",10
,"Fen, marsh and swamp",11
,"Bogs",12
,"Standing open water and canals",13
,"Rivers and streams",14
,"Montane habitats",15
,"Inland rock",16
,"Built up areas and gardens",17
,"Supralittoral rock",18
,"Supralittoral sediment",19
,"Littoral rock",20
,"Littoral sediment",21
,"Inshore sublittoral rock",22
,"Inshore sublittoral sediment",23
,"Offshore shelf rock",24
,"Offshore shelf sediment",25
,"Continental shelf slope",26
,"Oceanic seas",27