,"contacts","System Administrator","Add and edit all data",0,"2010-08-19"
,"contacts","DPA Access","View DPA data",0,"2010-08-19"
,"contacts","Contact Editor","Edit contacts database",0,"2010-08-19"
,"contacts","Registered User","View unprotected data",1,"2010-08-19"