{
   "Template":"Contacts",
   "Version":"V0.1",
   "Actions":[
      {
         "Name":"Creating Tables",
         "Method":"Define"
      },
      {
         "Name":"Entering Genera Table Definitions",
         "Method":"UpdateGenera"
      },
      {
         "Name":"Updating Permissions Data",
         "Method":"UpdatePermissions"
      }
   ],
   "Tables":[
      {
         "Prefix":"GEN_",
         "Name":"Name",
         "DisplayName":"Name",
         "IsSearchable":true,
         "PopulatedBy":"System",
         "Columns":[
            {
               "Name":"GEN_Name_Id",
               "DataType":"Unique Key",
               "Mandatory":true,
               "IsEditable":false
            },
            {
               "Name":"Name",
               "DataType":"Short Text",
               "DisplayName":"Name",
               "Mandatory":true
            },
            {
               "Name":"IsPer",
               "DataType":"True or False",
               "DisplayName":"Person",
               "Mandatory":false
            },
            {
               "Name":"IsDep",
               "DataType":"True or False",
               "DisplayName":"Department",
               "Mandatory":false
            },
            {
               "Name":"IsOrg",
               "DataType":"True or False",
               "DisplayName":"Organisation",
               "Mandatory":false
            },
            {
               "Name":"CreatedBy",
               "DataType":"Linked Data",
               "DisplayName":"Created By",
               "ToTable":"ADM_User",
               "Mandatory":false
            },
            {
               "Name":"CreatedDate",
               "DataType":"Date",
               "DisplayName":"Created Date",
               "Mandatory":true
            }
         ],
         "Permissions":[
            {
               "Domain":"contacts",
               "Permission":"view_organisations",
               "Actions":["Select"],
               "LimitTo":"IsOrgOrDep"
            },
            {
               "Domain":"contacts",
               "Permission":"view_individuals",
               "Actions":["Select"],
               "LimitTo":"IsPerson"
            }
         ]
      },
      {
         "Prefix":"GEN_",
         "Name":"Name_Hierarchy",
         "DisplayName":"Name Hierarchy",
         "IsSearchable":true,
         "PopulatedBy":"System",
         "Columns":[
            {
               "Name":"GEN_Name_Hierarchy_Id",
               "DataType":"Unique Key",
               "Mandatory":true,
               "IsEditable":false
            },
            {
               "Name":"Parent_Id",
               "DataType":"Linked Data",
               "DisplayName":"Parent",
               "ToTable":"GEN_Name",
               "Mandatory":true
            },
            {
               "Name":"Child_Id",
               "DataType":"Linked Data",
               "DisplayName":"Child",
               "ToTable":"GEN_Name",
               "Mandatory":true
            },
            {
               "Name":"CreatedBy",
               "DataType":"Linked Data",
               "DisplayName":"Created By",
               "ToTable":"ADM_User",
               "Mandatory":false
            },
            {
               "Name":"CreatedDate",
               "DataType":"Date",
               "DisplayName":"Created Date",
               "Mandatory":true
            }
         ],
         "Permissions":[
            {
               "Domain":"contacts",
               "Permission":"view_membership_hierarchy",
               "Actions":["Search","Select"]
            },
            {
               "Domain":"contacts",
               "Permission":"edit_membersip",
               "Actions":["Add","Edit","Delete"]
            },
            {
               "Domain":"contacts",
               "Permission":"edit_own_membership",
               "Actions":["Add","Edit","Delete"],
               "LimitTo":"IsSelf"
            }
         ]
      },
      {
         "Prefix":"GEN_",
         "Name":"Address",
         "DisplayName":"Address",
         "IsSearchable":true,
         "PopulatedBy":"User",
         "Columns":[
            {
               "Name":"GEN_Address_Id",
               "DataType":"Unique Key",
               "Mandatory":true,
               "IsEditable":false
            },
            {
               "Name":"GEN_Name_Id",
               "DataType":"Linked Data",
               "DisplayName":"Name",
               "ToTable":"GEN_Name",
               "Mandatory":true
            },
            {
               "Name":"IsHome",
               "DataType":"True or False",
               "DisplayName":"Is home address"
            },
            {
               "Name":"Address",
               "DataType":"Long Text",
               "DisplayName":"Address",
               "Mandatory":true
            },
            {
               "Name":"Postcode",
               "DataType":"Short Text",
               "DisplayName":"Postcode",
               "Mandatory":true
            },
            {
               "Name":"CreatedBy",
               "DataType":"Linked Data",
               "DisplayName":"Created By",
               "ToTable":"ADM_User",
               "Mandatory":false
            },
            {
               "Name":"CreatedDate",
               "DataType":"Date",
               "DisplayName":"Created Date",
               "Mandatory":true
            }
         ],
         "Permissions":[
            {
               "Domain":"contacts",
               "Permission":"view_personal_details",
               "Actions":["Search","Select"],
               "LimitTo":"IsPerson"
            },
            {
               "Domain":"contacts",
               "Permission":"view_organisation_details",
               "Actions":["Search","Select"],
               "LimitTo":"IsOrgOrDep"
            },
            {
               "Domain":"contacts",
               "Permission":"add_edit_people",
               "Actions":["Add","Edit","Delete"],
               "LimitTo":"IsPerson"
            },
            {
               "Domain":"contacts",
               "Permission":"add_edit_organisations",
               "Actions":["Add","Edit","Delete"],
               "LimitTo":"IsOrgOrDep"
            },
            {
               "Domain":"contacts",
               "Permission":"edit_self",
               "Actions":["Add","Edit","Delete"],
               "LimitTo":"IsSelf"
            }
         ]
      },
      {
         "Prefix":"GEN_",
         "Name":"Department",
         "DisplayName":"Department Or Team",
         "IsSearchable":true,
         "PopulatedBy":"User",
         "Columns":[
            {
               "Name":"GEN_Department_Id",
               "DataType":"Unique Key",
               "Mandatory":true,
               "IsEditable":false
            },
            {
               "Name":"GEN_Name_Id",
               "DataType":"Linked Data",
               "DisplayName":"Name",
               "ToTable":"GEN_Name",
               "Mandatory":true
            },
            {
               "Name":"Department",
               "DataType":"Short Text",
               "DisplayName":"Department Name",
               "Mandatory":true
            },
            {
               "Name":"CreatedBy",
               "DataType":"Linked Data",
               "DisplayName":"Created By",
               "ToTable":"ADM_User",
               "Mandatory":false
            },
            {
               "Name":"CreatedDate",
               "DataType":"Date",
               "DisplayName":"Created Date",
               "Mandatory":true
            }
         ],
         "Permissions":[
            {
               "Domain":"contacts",
               "Permission":"view_organisations",
               "Actions":["Search","Select"]
            },
            {
               "Domain":"contacts",
               "Permission":"add_edit_organisations",
               "Actions":["Add","Edit","Delete"]
            }
         ]
      },
      {
         "Prefix":"GEN_",
         "Name":"Organisation",
         "DisplayName":"Organisation",
         "IsSearchable":true,
         "PopulatedBy":"User",
         "Columns":[
            {
               "Name":"GEN_Organisation_Id",
               "DataType":"Unique Key",
               "Mandatory":true,
               "IsEditable":false
            },
            {
               "Name":"GEN_Name_Id",
               "DataType":"Linked Data",
               "DisplayName":"Name",
               "ToTable":"GEN_Name",
               "Mandatory":true
            },
            {
               "Name":"Organisation",
               "DataType":"Short Text",
               "DisplayName":"Organisation Name",
               "Mandatory":true
            },
            {
               "Name":"Acronym",
               "DataType":"Short Text",
               "DisplayName":"Acronym",
               "Mandatory":false
            },
            {
               "Name":"URL",
               "DataType":"Short Text",
               "DisplayName":"Website",
               "Mandatory":false
            },
            {
               "Name":"CreatedBy",
               "DataType":"Linked Data",
               "DisplayName":"Created By",
               "ToTable":"ADM_User",
               "Mandatory":false
            },
            {
               "Name":"CreatedDate",
               "DataType":"Date",
               "DisplayName":"Created Date",
               "Mandatory":true
            }
         ],
         "Permissions":[
            {
               "Domain":"contacts",
               "Permission":"view_organisations",
               "Actions":["Search","Select"]
            },
            {
               "Domain":"contacts",
               "Permission":"add_edit_organisations",
               "Actions":["Add","Edit","Delete"]
            }
         ]
      },
      {
         "Prefix":"GEN_",
         "Name":"Person",
         "DisplayName":"Person",
         "IsSearchable":true,
         "PopulatedBy":"User",
         "Columns":[
            {
               "Name":"GEN_Person_Id",
               "DataType":"Unique Key",
               "Mandatory":true,
               "IsEditable":false
            },
            {
               "Name":"GEN_Name_Id",
               "DataType":"Linked Data",
               "DisplayName":"Name",
               "ToTable":"GEN_Name",
               "Mandatory":true
            },
            {
               "Name":"FirstName",
               "DataType":"Short Text",
               "DisplayName":"First Name",
               "Mandatory":true
            },
            {
               "Name":"Surname",
               "DataType":"Short Text",
               "DisplayName":"Surname",
               "Mandatory":true
            },
            {
               "Name":"Title",
               "DataType":"Short Text",
               "DisplayName":"Title",
               "Mandatory":false
            },
            {
               "Name":"Suffix",
               "DataType":"Short Text",
               "DisplayName":"Honorifics",
               "Mandatory":true
            },
            {
               "Name":"Email",
               "DataType":"Short Text",
               "DisplayName":"Email",
               "Mandatory":false
            },
            {
               "Name":"CreatedBy",
               "DataType":"Linked Data",
               "DisplayName":"Created By",
               "ToTable":"ADM_User",
               "Mandatory":false
            },
            {
               "Name":"CreatedDate",
               "DataType":"Date",
               "DisplayName":"Created Date",
               "Mandatory":true
            }
         ],
         "Permissions":[
            {
               "Domain":"contacts",
               "Permission":"view_people",
               "Actions":["Search","Select"]
            },
            {
               "Domain":"contacts",
               "Permission":"add_edit_people",
               "Actions":["Add","Edit","Delete"]
            },
            {
               "Domain":"contacts",
               "Permission":"edit_self",
               "Actions":["Add","Edit","Delete"],
               "LimitTo":"IsSelf"
            }
         ]
      },
      {
         "Prefix":"GEN_",
         "Name":"ContactNumber",
         "DisplayName":"Contact Number",
         "IsSearchable":true,
         "PopulatedBy":"User",
         "Columns":[
            {
               "Name":"GEN_ContactNumber_Id",
               "DataType":"Unique Key",
               "Mandatory":true,
               "IsEditable":false
            },
            {
               "Name":"GEN_Name_Id",
               "DataType":"Linked Data",
               "DisplayName":"Name",
               "ToTable":"GEN_Name",
               "Mandatory":true
            },
            {
               "Name":"Type",
               "DataType":"Short Text",
               "DisplayName":"Type",
               "Mandatory":true
            },
            {
               "Name":"Number",
               "DataType":"Short Text",
               "DisplayName":"Number",
               "Mandatory":true
            },
            {
               "Name":"Extension",
               "DataType":"Short Text",
               "DisplayName":"Extension",
               "Mandatory":false
            },
            {
               "Name":"CreatedBy",
               "DataType":"Linked Data",
               "DisplayName":"Created By",
               "ToTable":"ADM_User",
               "Mandatory":false
            },
            {
               "Name":"CreatedDate",
               "DataType":"Date",
               "DisplayName":"Created Date",
               "Mandatory":true
            }
         ],
         "Permissions":[
            {
               "Domain":"contacts",
               "Permission":"view_personal_details",
               "Actions":["Search","Select"],
               "LimitTo":"IsPerson"
            },
            {
               "Domain":"contacts",
               "Permission":"view_organisation_details",
               "Actions":["Search","Select"],
               "LimitTo":"IsOrgOrDep"
            },
            {
               "Domain":"contacts",
               "Permission":"add_edit_people",
               "Actions":["Add","Edit","Delete"],
               "LimitTo":"IsPerson"
            },
            {
               "Domain":"contacts",
               "Permission":"add_edit_organisation",
               "Actions":["Add","Edit","Delete"],
               "LimitTo":"IsOrgOrDep"
            },
            {
               "Domain":"contacts",
               "Permission":"edit_self",
               "Actions":["Add","Edit","Delete"],
               "LimitTo":"IsSelf"
            }
         ]
      },
      {
         "Prefix":"GEN_",
         "Name":"Email",
         "DisplayName":"Email",
         "IsSearchable":true,
         "PopulatedBy":"User",
         "Columns":[
            {
               "Name":"GEN_Email_Id",
               "DataType":"Unique Key",
               "Mandatory":true,
               "IsEditable":false
            },
            {
               "Name":"GEN_Name_Id",
               "DataType":"Linked Data",
               "DisplayName":"Name",
               "ToTable":"GEN_Name",
               "Mandatory":true
            },
            {
               "Name":"Type",
               "DataType":"Short Text",
               "DisplayName":"Type",
               "Mandatory":true
            },
            {
               "Name":"Email",
               "DataType":"Short Text",
               "DisplayName":"Email",
               "Mandatory":true
            },
            {
               "Name":"CreatedBy",
               "DataType":"Linked Data",
               "DisplayName":"Created By",
               "ToTable":"ADM_User",
               "Mandatory":false
            },
            {
               "Name":"CreatedDate",
               "DataType":"Date",
               "DisplayName":"Created Date",
               "Mandatory":true
            }
         ],
         "Permissions":[
            {
               "Domain":"contacts",
               "Permission":"view_personal_details",
               "Actions":["Search","Select"],
               "LimitTo":"IsPerson"
            },
            {
               "Domain":"contacts",
               "Permission":"view_organisation_details",
               "Actions":["Search","Select"],
               "LimitTo":"IsOrganisation"
            },
            {
               "Domain":"contacts",
               "Permission":"add_edit_person",
               "Actions":["Add","Edit","Delete"],
               "LimitTo":"IsPerson"
            },
            {
               "Domain":"contacts",
               "Permission":"add_edit_organisation",
               "Actions":["Add","Edit","Delete"],
               "LimitTo":"IsOrgOrDep"
            },
            {
               "Domain":"contacts",
               "Permission":"edit_self",
               "Actions":["Add","Edit","Delete"],
               "LimitTo":"IsSelf"
            }
         ]
      },
      {
         "Prefix":"GEN_",
         "Name":"Website",
         "DisplayName":"Website",
         "IsSearchable":true,
         "PopulatedBy":"User",
         "Columns":[
            {
               "Name":"GEN_Website_Id",
               "DataType":"Unique Key",
               "Mandatory":true,
               "IsEditable":false
            },
            {
               "Name":"GEN_Name_Id",
               "DataType":"Linked Data",
               "DisplayName":"Name",
               "ToTable":"GEN_Name",
               "Mandatory":true
            },
            {
               "Name":"Type",
               "DataType":"Short Text",
               "DisplayName":"Type",
               "Mandatory":true
            },
            {
               "Name":"URL",
               "DataType":"Medium Text",
               "DisplayName":"URL",
               "Mandatory":true
            },
            {
               "Name":"CreatedBy",
               "DataType":"Linked Data",
               "DisplayName":"Created By",
               "ToTable":"ADM_User",
               "Mandatory":false
            },
            {
               "Name":"CreatedDate",
               "DataType":"Date",
               "DisplayName":"Created Date",
               "Mandatory":true
            }
         ],
         "Permissions":[
            {
               "Domain":"contacts",
               "Permission":"view_personal_details",
               "Actions":["Search","Select"],
               "LimitTo":"IsPerson"
            },
            {
               "Domain":"contacts",
               "Permission":"view_organisation_details",
               "Actions":["Search","Select"],
               "LimitTo":"IsOrganisation"
            },
            {
               "Domain":"contacts",
               "Permission":"add_edit_person",
               "Actions":["Add","Edit","Delete"],
               "LimitTo":"IsPerson"
            },
            {
               "Domain":"contacts",
               "Permission":"add_edit_organisation",
               "Actions":["Add","Edit","Delete"],
               "LimitTo":"IsOrgOrDep"
            },
            {
               "Domain":"contacts",
               "Permission":"edit_self",
               "Actions":["Add","Edit","Delete"],
               "LimitTo":"IsSelf"
            }
         ]
      }
   ],
   "DefaultPermissions": [
      {
         "Domain":"contacts",
         "Label":"view_organisations",
         "Description":"View and search organisations by name",
         "Value":1
      },
      {
         "Domain":"contacts",
         "Label":"view_organisation_details",
         "Description":"View organisations contact details",
         "Value":1
      },
      {
         "Domain":"contacts",
         "Label":"view_people",
         "Description":"View and search people by name",
         "Value":1
      },
      {
         "Domain":"contacts",
         "Label":"view_personal_details",
         "Description":"View and contact details for individuals",
         "Value":0
      },
      {
         "Domain":"contacts",
         "Label":"view_membership_hierarchy",
         "Description":"View hierarchy of people and organisations",
         "Value":1
      },
      {
         "Domain":"contacts",
         "Label":"add_edit_organisations",
         "Description":"Add or edit an organisation",
         "Value":0
      },
      {
         "Domain":"contacts",
         "Label":"edit_self",
         "Description":"Add or edit your own contact details",
         "Value":1
      },
      {
         "Domain":"contacts",
         "Label":"add_edit_people",
         "Description":"Add or edit people",
         "Value":0
      },
      {
         "Domain":"contacts",
         "Label":"edit_membership",
         "Description":"Add or edit membership or organisations",
         "Value":0
      },
      {
         "Domain":"contacts",
         "Label":"edit_own_membership",
         "Description":"Add or edit your own membership or organisations",
         "Value":1
      },
      {
         "Domain":"contacts",
         "Label":"administrator",
         "Description":"Add or edit everything",
         "Value":0
      }
   ],
   "DataTypes": [
      {
         "Name":"Short Text",
         "Definition":"VARCHAR(100)"
      },
      {
         "Name":"Medium Text",
         "Definition":"VARCHAR(200)"
      },
      {
         "Name":"Long Text",
         "Definition":"TEXT"
      },
      {
         "Name":"Encrypted Text",
         "Definition":"VARCHAR(100)"
      },
      {
         "Name":"Number",
         "Definition":"FLOAT"
      },
      {
         "Name":"Date",
         "Definition":"DATE"
      },
      {
         "Name":"Date and Time",
         "Definition":"TIMESTAMP"
      },
      {
         "Name":"True or False",
         "Definition":"BOOLEAN"
      },
      {
         "Name":"Map Data",
         "Definition":"GEOMETRY"
      },
      {
         "Name":"Unique Key",
         "Definition":"INT UNSIGNED NOT NULL AUTO_INCREMENT"
      },
      {
         "Name":"Linked Data",
         "Definition":"INT UNSIGNED"
      }         
   ]
}                  