,"sites","System Administrator","Add and edit partnerships",0,"2010-08-19"
,"sites","Partnership Administrator","Add and edit partnership data",0,"2010-08-19"
,"sites","Partnership Member","View partnership data",0,"2010-08-19"
,"sites","Registered User","View unprotected data",1,"2010-08-19"