<?xml version="1.0" encoding="UTF-8" standalone="no"?>
<!-- Created with Inkscape (http://www.inkscape.org/) -->

<svg
   xmlns:dc="http://purl.org/dc/elements/1.1/"
   xmlns:cc="http://creativecommons.org/ns#"
   xmlns:rdf="http://www.w3.org/1999/02/22-rdf-syntax-ns#"
   xmlns:svg="http://www.w3.org/2000/svg"
   xmlns="http://www.w3.org/2000/svg"
   xmlns:sodipodi="http://sodipodi.sourceforge.net/DTD/sodipodi-0.dtd"
   xmlns:inkscape="http://www.inkscape.org/namespaces/inkscape"
   width="107"
   height="107.00422"
   id="svg2"
   version="1.1"
   inkscape:version="0.48.4 r9939"
   inkscape:export-filename="C:\xampp\htdocs\s2dev.1.5\images\sorticon-on.png"
   inkscape:export-xdpi="16.82"
   inkscape:export-ydpi="16.82"
   sodipodi:docname="s2sorticon.svg">
  <defs
     id="defs4" />
  <sodipodi:namedview
     id="base"
     pagecolor="#ffffff"
     bordercolor="#666666"
     borderopacity="1.0"
     inkscape:pageopacity="0.0"
     inkscape:pageshadow="2"
     inkscape:zoom="4"
     inkscape:cx="10.010638"
     inkscape:cy="54.203586"
     inkscape:document-units="px"
     inkscape:current-layer="layer1"
     showgrid="true"
     fit-margin-top="0"
     fit-margin-left="0"
     fit-margin-right="0"
     fit-margin-bottom="0"
     objecttolerance="10000"
     guidetolerance="20"
     inkscape:window-width="1366"
     inkscape:window-height="706"
     inkscape:window-x="-8"
     inkscape:window-y="-8"
     inkscape:window-maximized="1">
    <inkscape:grid
       type="xygrid"
       id="grid3787"
       empspacing="2"
       visible="true"
       enabled="true"
       snapvisiblegridlinesonly="true"
       dotted="true" />
  </sodipodi:namedview>
  <metadata
     id="metadata7">
    <rdf:RDF>
      <cc:Work
         rdf:about="">
        <dc:format>image/svg+xml</dc:format>
        <dc:type
           rdf:resource="http://purl.org/dc/dcmitype/StillImage" />
        <dc:title></dc:title>
      </cc:Work>
    </rdf:RDF>
  </metadata>
  <g
     inkscape:label="Layer 1"
     inkscape:groupmode="layer"
     id="layer1"
     transform="translate(-242.21871,-297.43328)">
    <path
       sodipodi:type="star"
       style="opacity:0.98999999000000005;fill:#339933;fill-opacity:0.40000001;stroke:#99cc99;stroke-width:3;stroke-linecap:round;stroke-linejoin:round;stroke-miterlimit:4;stroke-opacity:0.20000000000000001;stroke-dasharray:none"
       id="path3783-9-8"
       sodipodi:sides="3"
       sodipodi:cx="28.5"
       sodipodi:cy="7.0042191"
       sodipodi:r1="44.683609"
       sodipodi:r2="22.341805"
       sodipodi:arg1="0.521228"
       sodipodi:arg2="1.5684256"
       inkscape:flatsided="false"
       inkscape:rounded="0"
       inkscape:randomized="0"
       d="m 67.249999,29.254219 -38.697033,0.09174 -38.69703,0.09174 L 9.125001,-4.1207817 28.394065,-37.679264 47.822033,-4.2125219 z"
       transform="matrix(1.284841,0,0,-0.50890109,259.10022,382.23304)"
       inkscape:transform-center-x="-0.068044533"
       inkscape:transform-center-y="5.6615268" />
    <path
       sodipodi:type="star"
       style="opacity:0.98999999000000005;fill:#339933;fill-opacity:0.40000001;stroke:#99cc99;stroke-width:3;stroke-linecap:round;stroke-linejoin:round;stroke-miterlimit:4;stroke-opacity:0.20000000000000001;stroke-dasharray:none"
       id="path3783-7"
       sodipodi:sides="3"
       sodipodi:cx="28.5"
       sodipodi:cy="7.0042191"
       sodipodi:r1="44.683609"
       sodipodi:r2="22.341805"
       sodipodi:arg1="0.521228"
       sodipodi:arg2="1.5684256"
       inkscape:flatsided="false"
       inkscape:rounded="0"
       inkscape:randomized="0"
       d="m 67.249999,29.254219 -38.697033,0.09174 -38.69703,0.09174 L 9.125001,-4.1207817 28.394065,-37.679264 47.822033,-4.2125219 z"
       transform="matrix(1.284841,0,0,0.50890109,258.84968,346.72067)"
       inkscape:transform-center-x="-0.068051243"
       inkscape:transform-center-y="-5.661529" />
    <path
       sodipodi:type="star"
       style="opacity:0.98999999000000005;fill:#339933;fill-opacity:1;stroke:none;stroke-width:3;stroke-linecap:round;stroke-linejoin:round;stroke-miterlimit:4;stroke-opacity:1;stroke-dasharray:none"
       id="path3783-9"
       sodipodi:sides="3"
       sodipodi:cx="28.5"
       sodipodi:cy="7.0042191"
       sodipodi:r1="44.683609"
       sodipodi:r2="22.341805"
       sodipodi:arg1="0.521228"
       sodipodi:arg2="1.5684256"
       inkscape:flatsided="false"
       inkscape:rounded="0"
       inkscape:randomized="0"
       d="m 67.249999,29.254219 -38.697033,0.09174 -38.69703,0.09174 L 9.125001,-4.1207817 28.394065,-37.679264 47.822033,-4.2125219 z"
       transform="matrix(1.2820374,0,0,-0.60558274,259.43,366.48138)"
       inkscape:transform-center-x="-0.067898306"
       inkscape:transform-center-y="6.7371088" />
    <path
       sodipodi:type="star"
       style="opacity:0.98999999000000005;fill:#33cc33;fill-opacity:1;stroke:none;stroke-width:3;stroke-linecap:round;stroke-linejoin:round;stroke-miterlimit:4;stroke-opacity:1;stroke-dasharray:none"
       id="path3783"
       sodipodi:sides="3"
       sodipodi:cx="28.5"
       sodipodi:cy="7.0042191"
       sodipodi:r1="44.683609"
       sodipodi:r2="22.341805"
       sodipodi:arg1="0.521228"
       sodipodi:arg2="1.5684256"
       inkscape:flatsided="false"
       inkscape:rounded="0"
       inkscape:randomized="0"
       d="m 67.249999,29.254219 -38.697033,0.09174 -38.69703,0.09174 L 9.125001,-4.1207817 28.394065,-37.679264 47.822033,-4.2125219 z"
       transform="matrix(1.2820374,0,0,0.60558274,259.18,324.22233)"
       inkscape:transform-center-x="-0.067898306"
       inkscape:transform-center-y="-6.7371114" />
  </g>
</svg>
